%YAML 1.1
%TAG !u! tag:unity3d.com,2011:
--- !u!21 &2100000
Material:
  serializedVersion: 6
  m_ObjectHideFlags: 0
  m_CorrespondingSourceObject: {fileID: 0}
  m_PrefabInstance: {fileID: 0}
  m_PrefabAsset: {fileID: 0}
  m_Name: Station14-08
  m_Shader: {fileID: 4800000, guid: 0803c241834332942abfcbd27c498b46, type: 3}
  m_ShaderKeywords: _ENABLEBRIGHTNESS_ON _ENABLEFULLDISTORTION_ON _SHADERSPACE_UV
    _TIMESETTINGS_LINEAR_DEFAULT _UBERFADING_NONE
  m_LightmapFlags: 4
  m_EnableInstancingVariants: 0
  m_DoubleSidedGI: 0
  m_CustomRenderQueue: -1
  stringTagMap: {}
  disabledShaderPasses: []
  m_SavedProperties:
    serializedVersion: 3
    m_TexEnvs:
    - _AddHueShaderMask:
        m_Texture: {fileID: 0}
        m_Scale: {x: 1, y: 1}
        m_Offset: {x: 0, y: 0}
    - _AlphaTex:
        m_Texture: {fileID: 0}
        m_Scale: {x: 1, y: 1}
        m_Offset: {x: 0, y: 0}
    - _BumpMap:
        m_Texture: {fileID: 0}
        m_Scale: {x: 1, y: 1}
        m_Offset: {x: 0, y: 0}
    - _CamouflageShaderMask:
        m_Texture: {fileID: 0}
        m_Scale: {x: 1, y: 1}
        m_Offset: {x: 0, y: 0}
    - _CustomFadeFadeMask:
        m_Texture: {fileID: 0}
        m_Scale: {x: 1, y: 1}
        m_Offset: {x: 0, y: 0}
    - _DetailAlbedoMap:
        m_Texture: {fileID: 0}
        m_Scale: {x: 1, y: 1}
        m_Offset: {x: 0, y: 0}
    - _DetailMask:
        m_Texture: {fileID: 0}
        m_Scale: {x: 1, y: 1}
        m_Offset: {x: 0, y: 0}
    - _DetailNormalMap:
        m_Texture: {fileID: 0}
        m_Scale: {x: 1, y: 1}
        m_Offset: {x: 0, y: 0}
    - _EmissionMap:
        m_Texture: {fileID: 0}
        m_Scale: {x: 1, y: 1}
        m_Offset: {x: 0, y: 0}
    - _MainTex:
        m_Texture: {fileID: 0}
        m_Scale: {x: 1, y: 1}
        m_Offset: {x: 0, y: 0}
    - _MetalShaderMask:
        m_Texture: {fileID: 0}
        m_Scale: {x: 1, y: 1}
        m_Offset: {x: 0, y: 0}
    - _MetallicGlossMap:
        m_Texture: {fileID: 0}
        m_Scale: {x: 1, y: 1}
        m_Offset: {x: 0, y: 0}
    - _OcclusionMap:
        m_Texture: {fileID: 0}
        m_Scale: {x: 1, y: 1}
        m_Offset: {x: 0, y: 0}
    - _ParallaxMap:
        m_Texture: {fileID: 0}
        m_Scale: {x: 1, y: 1}
        m_Offset: {x: 0, y: 0}
    - _RainbowMask:
        m_Texture: {fileID: 0}
        m_Scale: {x: 1, y: 1}
        m_Offset: {x: 0, y: 0}
    - _RecolorTintAreas:
        m_Texture: {fileID: 0}
        m_Scale: {x: 1, y: 1}
        m_Offset: {x: 0, y: 0}
    - _ShiftHueShaderMask:
        m_Texture: {fileID: 0}
        m_Scale: {x: 1, y: 1}
        m_Offset: {x: 0, y: 0}
    - _ShineShaderMask:
        m_Texture: {fileID: 0}
        m_Scale: {x: 1, y: 1}
        m_Offset: {x: 0, y: 0}
    - _SineGlowShaderMask:
        m_Texture: {fileID: 0}
        m_Scale: {x: 1, y: 1}
        m_Offset: {x: 0, y: 0}
    - _UVDistortShaderMask:
        m_Texture: {fileID: 0}
        m_Scale: {x: 1, y: 1}
        m_Offset: {x: 0, y: 0}
    - _UberMask:
        m_Texture: {fileID: 0}
        m_Scale: {x: 1, y: 1}
        m_Offset: {x: 0, y: 0}
    - _UberNoiseTexture:
        m_Texture: {fileID: 2800000, guid: 6b7b4a61603088549ac748de5e4e6d8c, type: 3}
        m_Scale: {x: 1, y: 1}
        m_Offset: {x: 0, y: 0}
    - _texcoord:
        m_Texture: {fileID: 0}
        m_Scale: {x: 1, y: 1}
        m_Offset: {x: 0, y: 0}
    m_Floats:
    - PixelSnap: 0
    - _AddColorContrast: 0.5
    - _AddColorFade: 1
    - _AddHueBrightness: 2
    - _AddHueContrast: 1
    - _AddHueFade: 1
    - _AddHueSaturation: 1
    - _AddHueSpeed: 1
    - _AlphaTintFade: 1
    - _AlphaTintMinAlpha: 0.283
    - _AlphaTintPower: 1
    - _BlackTintFade: 1
    - _BlackTintPower: 2
    - _Brightness: 4
    - _BumpScale: 1
    - _BurnEdgeNoiseFactor: 0.5
    - _BurnFade: 1
    - _BurnInsideContrast: 2
    - _BurnInsideNoiseFactor: 0.05
    - _BurnRadius: 5
    - _BurnSwirlFactor: 1
    - _BurnWidth: 0.1
    - _CamouflageAnimated: 0
    - _CamouflageContrast: 1
    - _CamouflageDensityA: 0.4
    - _CamouflageDensityB: 0.4
    - _CamouflageFade: 1
    - _CamouflageSmoothnessA: 0.2
    - _CamouflageSmoothnessB: 0.2
    - _CheckerboardDarken: 0.5
    - _CheckerboardTiling: 1
    - _ColorReplaceBias: 1
    - _ColorReplaceBrightnessTolerance: 1
    - _ColorReplaceContrast: 1
    - _ColorReplaceFade: 1
    - _ColorReplaceHueTolerance: 1
    - _ColorReplaceSaturationTolerance: 1
    - _Contrast: 1
    - _CustomFadeAlpha: 1
    - _CustomFadeNoiseFactor: 0
    - _CustomFadeSmoothness: 2
    - _Cutoff: 0.5
    - _DetailNormalMapScale: 1
    - _DirectionalAlphaFadeFade: 0
    - _DirectionalAlphaFadeInvert: 0
    - _DirectionalAlphaFadeNoiseFactor: 0.2
    - _DirectionalAlphaFadeRotation: 0
    - _DirectionalAlphaFadeWidth: 0.2
    - _DirectionalDistortionFade: 0
    - _DirectionalDistortionInvert: 0
    - _DirectionalDistortionNoiseFactor: 0.2
    - _DirectionalDistortionRandomDirection: 0.1
    - _DirectionalDistortionRotation: 0
    - _DirectionalDistortionWidth: 0.5
    - _DirectionalGlowFadeFade: 0
    - _DirectionalGlowFadeInvert: 0
    - _DirectionalGlowFadeNoiseFactor: 0.2
    - _DirectionalGlowFadeRotation: 0
    - _DirectionalGlowFadeWidth: 0.1
    - _DstBlend: 0
    - _EnableAddColor: 0
    - _EnableAddHue: 0
    - _EnableAlphaTint: 0
    - _EnableBlackTint: 0
    - _EnableBrightness: 1
    - _EnableBurn: 0
    - _EnableCamouflage: 0
    - _EnableCheckerboard: 0
    - _EnableColorReplace: 0
    - _EnableContrast: 0
    - _EnableCustomFade: 0
    - _EnableDirectionalAlphaFade: 0
    - _EnableDirectionalDistortion: 0
    - _EnableDirectionalGlowFade: 0
    - _EnableExternalAlpha: 0
    - _EnableFlame: 0
    - _EnableFrozen: 0
    - _EnableFullAlphaDissolve: 0
    - _EnableFullDistortion: 1
    - _EnableFullGlowDissolve: 0
    - _EnableGlitch: 0
    - _EnableHalftone: 0
    - _EnableHologram: 0
    - _EnableHue: 0
    - _EnableInkSpread: 0
    - _EnableInnerOutline: 0
    - _EnableMetal: 0
    - _EnableOuterOutline: 0
    - _EnablePixelate: 0
    - _EnablePoison: 0
    - _EnableRainbow: 0
    - _EnableRecolor: 0
    - _EnableSaturation: 0
    - _EnableShiftHue: 0
    - _EnableShine: 0
    - _EnableSineGlow: 0
    - _EnableSineMove: 0
    - _EnableSineRotate: 0
    - _EnableSmoke: 0
    - _EnableSourceAlphaDissolve: 0
    - _EnableSourceGlowDissolve: 0
    - _EnableSplitToning: 0
    - _EnableSqueeze: 0
    - _EnableSquish2: 0
    - _EnableStrongTint: 0
    - _EnableUVDistort: 0
    - _EnableUVRotate: 0
    - _EnableUVScale: 0
    - _EnableUVScroll: 0
    - _EnableVibrate: 0
    - _EnableWind: 0
    - _FlameBrightness: 10
    - _FlameNoiseFactor: 2.5
    - _FlameNoiseHeightFactor: 1.5
    - _FlameRadius: 0.2
    - _FlameSmooth: 2
    - _FrozenContrast: 2
    - _FrozenFade: 1
    - _FrozenHighlightContrast: 2
    - _FrozenHighlightDensity: 1
    - _FrozenSnowContrast: 1
    - _FrozenSnowDensity: 0.25
    - _FullAlphaDissolveFade: 1
    - _FullAlphaDissolveWidth: 0.5
    - _FullDistortionFade: 0
    - _FullFade: 1
    - _FullGlowDissolveFade: 1
    - _FullGlowDissolveWidth: 0.5
    - _GlitchBrightness: 4
    - _GlitchFade: 1
    - _GlitchHueSpeed: 1
    - _GlitchMaskMin: 0.4
    - _GlossMapScale: 1
    - _Glossiness: 0.5
    - _GlossyReflections: 1
    - _HalftoneFade: 1
    - _HalftoneFadeWidth: 1.5
    - _HalftoneInvert: 0
    - _HalftoneTiling: 4
    - _HologramContrast: 1
    - _HologramDistortionDensity: 0.5
    - _HologramDistortionOffset: 0.5
    - _HologramDistortionScale: 10
    - _HologramDistortionSpeed: 2
    - _HologramFade: 1
    - _HologramLineFrequency: 500
    - _HologramLineGap: 3
    - _HologramLineSpeed: 0.01
    - _HologramMinAlpha: 0.2
    - _Hue: 0
    - _InkSpreadContrast: 2
    - _InkSpreadDistance: 3
    - _InkSpreadFade: 1
    - _InkSpreadNoiseFactor: 0.5
    - _InkSpreadWidth: 0.2
    - _InnerOutlineDistortionToggle: 0
    - _InnerOutlineFade: 1
    - _InnerOutlineWidth: 0.02
    - _MetalContrast: 2
    - _MetalFade: 1
    - _MetalHighlightContrast: 2
    - _MetalHighlightDensity: 1
    - _Metallic: 0
    - _Mode: 0
    - _OcclusionStrength: 1
    - _OuterOutlineDistortionToggle: 0
    - _OuterOutlineFade: 1
    - _OuterOutlineWidth: 0.1
    - _Parallax: 0.02
    - _PixelateFade: 1
    - _PixelatePixelDensity: 16
    - _PixelsPerUnit: 100
    - _PoisonDensity: 3
    - _PoisonFade: 1
    - _PoisonNoiseBrightness: 1
    - _PoisonRecolorFactor: 0.5
    - _PoisonShiftSpeed: 0.2
    - _RainbowBrightness: 2
    - _RainbowContrast: 1
    - _RainbowDensity: 0.5
    - _RainbowFade: 1
    - _RainbowNoiseFactor: 0.2
    - _RainbowSaturation: 1
    - _RainbowSpeed: 1
    - _RecolorFade: 1
    - _RectHeight: 100
    - _RectWidth: 100
    - _Saturation: 1
    - _ScreenWidthUnits: 10
    - _ShaderSpace: 0
    - _ShiftHueFade: 1
    - _ShiftHueSpeed: 0.5
    - _ShineContrast: 2
    - _ShineFade: 1
    - _ShineRotation: 0
    - _ShineSaturation: 0.5
    - _ShineScale: 0.05
    - _ShineSmoothness: 2
    - _ShineSpeed: 0.1
    - _ShineWidth: 0.1
    - _SineGlowContrast: 1
    - _SineGlowFade: 1
    - _SineGlowFrequency: 4
    - _SineGlowMax: 1
    - _SineGlowMin: 0
    - _SineMoveFade: 1
    - _SineRotateAngle: 15
    - _SineRotateFade: 1
    - _SineRotateFrequency: 1
    - _SmokeAlpha: 1
    - _SmokeDarkEdge: 1
    - _SmokeNoiseFactor: 0.4
    - _SmokeNoiseScale: 0.5
    - _SmokeSmoothness: 1
    - _SmokeVertexSeed: 0
    - _SmoothnessTextureChannel: 0
    - _SourceAlphaDissolveFade: 1
    - _SourceAlphaDissolveInvert: 0
    - _SourceAlphaDissolveNoiseFactor: 0.2
    - _SourceAlphaDissolveWidth: 0.2
    - _SourceGlowDissolveFade: 1
    - _SourceGlowDissolveInvert: 0
    - _SourceGlowDissolveNoiseFactor: 0.2
    - _SourceGlowDissolveWidth: 0.1
    - _SpecularHighlights: 1
    - _SplitToningBalance: 1
    - _SplitToningContrast: 1
    - _SplitToningFade: 1
    - _SplitToningShift: 0
    - _SqueezeFade: 1
    - _SqueezePower: 1
    - _SquishFade: 1
    - _SquishFlip: 0
    - _SquishSquish: 0.1
    - _SquishStretch: 0.1
    - _SrcBlend: 1
    - _StrongTintContrast: 0
    - _StrongTintFade: 1
    - _TimeFPS: 5
    - _TimeFrequency: 2
    - _TimeRange: 0.5
    - _TimeScale: 1
    - _TimeSettings: 0
    - _TimeValue: 0
    - _UVDistortFade: 1
    - _UVRotateSpeed: 1
    - _UVSec: 0
    - _UberFading: 0
    - _UberNoiseFactor: 0.2
    - _UberWidth: 0.3
    - _VibrateFade: 1
    - _VibrateFrequency: 100
    - _VibrateOffset: 0.04
    - _VibrateRotation: 4
    - _WindFlip: 0
    - _WindIsParallax: 0
    - _WindMaxRotation: 2
    - _WindRotation: 0
    - _WindRotationWindFactor: 1
    - _WindSquishFactor: 0.3
    - _WindSquishWindFactor: 0
    - _WindXPosition: 0
    - _ZWrite: 1
    m_Colors:
    - _AddColorColor: {r: 2.2167337, g: 1.2861239, b: 1.2861239, a: 0}
    - _AlphaTintColor: {r: 23.96863, g: 1.254902, b: 23.96863, a: 0}
    - _BlackTintColor: {r: 1, g: 0, b: 0, a: 0}
    - _BurnEdgeColor: {r: 11.98431, g: 1.129412, b: 0.1254902, a: 0}
    - _BurnEdgeNoiseScale: {r: 0.3, g: 0.3, b: 0, a: 0}
    - _BurnInsideColor: {r: 0.75, g: 0.5625, b: 0.525, a: 0}
    - _BurnInsideNoiseColor: {r: 3084.047, g: 257.0039, b: 0, a: 0}
    - _BurnInsideNoiseScale: {r: 0.5, g: 0.5, b: 0, a: 0}
    - _BurnPosition: {r: 0, g: 5, b: 0, a: 0}
    - _BurnSwirlNoiseScale: {r: 0.1, g: 0.1, b: 0, a: 0}
    - _CamouflageAnimationSpeed: {r: 0.1, g: 0.1, b: 0, a: 0}
    - _CamouflageBaseColor: {r: 0.7450981, g: 0.7254902, b: 0.5686274, a: 0}
    - _CamouflageColorA: {r: 0.62745106, g: 0.5882353, b: 0.43137258, a: 0}
    - _CamouflageColorB: {r: 0.47058815, g: 0.43137258, b: 0.31372547, a: 0}
    - _CamouflageDistortionIntensity: {r: 0.1, g: 0.1, b: 0, a: 0}
    - _CamouflageDistortionScale: {r: 0.5, g: 0.5, b: 0, a: 0}
    - _CamouflageNoiseScaleA: {r: 0.25, g: 0.25, b: 0, a: 0}
    - _CamouflageNoiseScaleB: {r: 0.25, g: 0.25, b: 0, a: 0}
    - _Color: {r: 1, g: 1, b: 1, a: 1}
    - _ColorReplaceColor: {r: 1, g: 0, b: 0, a: 0}
    - _ColorReplaceTargetColor: {r: 0, g: 0, b: 0, a: 0}
    - _CustomFadeNoiseScale: {r: 1, g: 1, b: 0, a: 0}
    - _DirectionalAlphaFadeNoiseScale: {r: 0.3, g: 0.3, b: 0, a: 0}
    - _DirectionalDistortionDistortion: {r: 0, g: 0.1, b: 0, a: 0}
    - _DirectionalDistortionDistortionScale: {r: 1, g: 1, b: 0, a: 0}
    - _DirectionalDistortionNoiseScale: {r: 0.4, g: 0.4, b: 0, a: 0}
    - _DirectionalGlowFadeEdgeColor: {r: 11.98431, g: 0.6901961, b: 0.6901961, a: 0}
    - _DirectionalGlowFadeNoiseScale: {r: 0.4, g: 0.4, b: 0, a: 0}
    - _EmissionColor: {r: 0, g: 0, b: 0, a: 1}
    - _FlameNoiseScale: {r: 1.2, g: 0.8, b: 0, a: 0}
    - _FlameSpeed: {r: 0, g: -0.5, b: 0, a: 0}
    - _Flip: {r: 1, g: 1, b: 1, a: 1}
    - _FrozenHighlightColor: {r: 1.797647, g: 4.604501, b: 5.992157, a: 1}
    - _FrozenHighlightDistortion: {r: 0.5, g: 0.5, b: 0, a: 0}
    - _FrozenHighlightDistortionScale: {r: 0.2, g: 0.2, b: 0, a: 0}
    - _FrozenHighlightDistortionSpeed: {r: -0.05, g: -0.05, b: 0, a: 0}
    - _FrozenHighlightScale: {r: 0.2, g: 0.2, b: 0, a: 0}
    - _FrozenHighlightSpeed: {r: 0.1, g: 0.1, b: 0, a: 0}
    - _FrozenSnowColor: {r: 1.123529, g: 1.373203, b: 1.498039, a: 0}
    - _FrozenSnowScale: {r: 0.1, g: 0.1, b: 0, a: 0}
    - _FrozenTint: {r: 1.819608, g: 4.611765, b: 5.992157, a: 0}
    - _FullAlphaDissolveNoiseScale: {r: 0.1, g: 0.1, b: 0, a: 0}
    - _FullDistortionDistortion: {r: 0.2, g: 0.2, b: 0, a: 0}
    - _FullDistortionNoiseScale: {r: 0.5, g: 0.5, b: 0, a: 0}
    - _FullGlowDissolveEdgeColor: {r: 11.98431, g: 0.627451, b: 0.627451, a: 0}
    - _FullGlowDissolveNoiseScale: {r: 0.1, g: 0.1, b: 0, a: 0}
    - _GlitchDistortion: {r: 0.1, g: 0, b: 0, a: 0}
    - _GlitchDistortionScale: {r: 0, g: 3, b: 0, a: 0}
    - _GlitchDistortionSpeed: {r: 0, g: 1, b: 0, a: 0}
    - _GlitchMaskScale: {r: 0, g: 0.2, b: 0, a: 0}
    - _GlitchMaskSpeed: {r: 0, g: 4, b: 0, a: 0}
    - _GlitchNoiseScale: {r: 0, g: 3, b: 0, a: 0}
    - _GlitchNoiseSpeed: {r: 0, g: 1, b: 0, a: 0}
    - _HalftonePosition: {r: 0, g: 0, b: 0, a: 0}
    - _HologramTint: {r: 0.3137255, g: 1.662745, b: 2.996078, a: 1}
    - _InkSpreadColor: {r: 8.47419, g: 5.013525, b: 0.08873497, a: 0}
    - _InkSpreadNoiseScale: {r: 0.4, g: 0.4, b: 0, a: 0}
    - _InkSpreadPosition: {r: 0.5, g: -1, b: 0, a: 0}
    - _InnerOutlineColor: {r: 11.98431, g: 1.254902, b: 1.254902, a: 1}
    - _InnerOutlineDistortionIntensity: {r: 0.01, g: 0.01, b: 0, a: 0}
    - _InnerOutlineNoiseScale: {r: 4, g: 4, b: 0, a: 0}
    - _InnerOutlineNoiseSpeed: {r: 0, g: 0.1, b: 0, a: 0}
    - _MetalColor: {r: 5.992157, g: 3.639216, b: 0.3137255, a: 1}
    - _MetalHighlightColor: {r: 5.992157, g: 3.796078, b: 0.6588235, a: 1}
    - _MetalNoiseDistortion: {r: 0.5, g: 0.5, b: 0, a: 0}
    - _MetalNoiseDistortionScale: {r: 0.2, g: 0.2, b: 0, a: 0}
    - _MetalNoiseDistortionSpeed: {r: -0.05, g: -0.05, b: 0, a: 0}
    - _MetalNoiseScale: {r: 0.25, g: 0.25, b: 0, a: 0}
    - _MetalNoiseSpeed: {r: 0.05, g: 0.05, b: 0, a: 0}
    - _OuterOutlineColor: {r: 0.6886792, g: 0.2887334, b: 0.055224285, a: 1}
    - _OuterOutlineDistortionIntensity: {r: 0.01, g: 0.01, b: 0, a: 0}
    - _OuterOutlineNoiseScale: {r: 4, g: 4, b: 0, a: 0}
    - _OuterOutlineNoiseSpeed: {r: 0, g: 0.1, b: 0, a: 0}
    - _PoisonColor: {r: 0.3137255, g: 2.996078, b: 0.3137255, a: 0}
    - _PoisonNoiseScale: {r: 0.2, g: 0.2, b: 0, a: 0}
    - _PoisonNoiseSpeed: {r: 0, g: -0.2, b: 0, a: 0}
    - _RainbowCenter: {r: 0, g: 0, b: 0, a: 0}
    - _RainbowNoiseScale: {r: 0.2, g: 0.2, b: 0, a: 0}
    - _RecolorBlueTint: {r: 1, g: 1, b: 1, a: 0.5019608}
    - _RecolorCyanTint: {r: 1, g: 1, b: 1, a: 0.5019608}
    - _RecolorGreenTint: {r: 1, g: 1, b: 1, a: 0.5019608}
    - _RecolorPurpleTint: {r: 1, g: 1, b: 1, a: 0.5019608}
    - _RecolorRedTint: {r: 1, g: 1, b: 1, a: 0.5019608}
    - _RecolorYellowTint: {r: 1, g: 1, b: 1, a: 0.5019608}
    - _RendererColor: {r: 1, g: 1, b: 1, a: 1}
    - _ShineColor: {r: 11.98431, g: 11.98431, b: 11.98431, a: 0}
    - _SineGlowColor: {r: 0, g: 2.007843, b: 2.996078, a: 0}
    - _SineMoveFrequency: {r: 1, g: 1, b: 0, a: 0}
    - _SineMoveOffset: {r: 0, g: 0.5, b: 0, a: 0}
    - _SineRotatePivot: {r: 0.5, g: 0.5, b: 0, a: 0}
    - _SourceAlphaDissolveNoiseScale: {r: 0.3, g: 0.3, b: 0, a: 0}
    - _SourceAlphaDissolvePosition: {r: 0, g: 0, b: 0, a: 0}
    - _SourceGlowDissolveEdgeColor: {r: 11.98431, g: 0.627451, b: 0.627451, a: 0}
    - _SourceGlowDissolveNoiseScale: {r: 0.3, g: 0.3, b: 0, a: 0}
    - _SourceGlowDissolvePosition: {r: 0, g: 0, b: 0, a: 0}
    - _SplitToningHighlightsColor: {r: 1, g: 0.1, b: 0.1, a: 0}
    - _SplitToningShadowsColor: {r: 0.1, g: 0.4000002, b: 1, a: 0}
    - _SqueezeCenter: {r: 0.5, g: 0.5, b: 0, a: 0}
    - _SqueezeScale: {r: 2, g: 0, b: 0, a: 0}
    - _StrongTintTint: {r: 1, g: 1, b: 1, a: 1}
    - _UVDistortFrom: {r: -0.02, g: -0.02, b: 0, a: 0}
    - _UVDistortNoiseScale: {r: 0.1, g: 0.1, b: 0, a: 0}
    - _UVDistortSpeed: {r: 2, g: 2, b: 0, a: 0}
    - _UVDistortTo: {r: 0.02, g: 0.02, b: 0, a: 0}
    - _UVRotatePivot: {r: 0.5, g: 0.5, b: 0, a: 0}
    - _UVScalePivot: {r: 0.5, g: 0.5, b: 0, a: 0}
    - _UVScaleScale: {r: 1, g: 1, b: 0, a: 0}
    - _UVScrollSpeed: {r: 0.2, g: 0, b: 0, a: 0}
    - _UberNoiseScale: {r: 0.2, g: 0.2, b: 0, a: 0}
    - _UberPosition: {r: 0, g: 0, b: 0, a: 0}
  m_BuildTextureStacks: []
